Individual Report STA 9750 – About Me
…
[1] 11

# WR
total_volumeWR <- Updated_WR %>% 
  group_by(player_display_name) %>% 
  summarise(
    targets = sum(targets, na.rm = TRUE),
    .groups = "drop"
  ) %>% 
  arrange(desc(targets)) %>% 
  slice_head(n=60)

total_volumeWR

# A tibble: 60 × 2
   player_display_name targets
   <chr>                 <int>
 1 Ja'Marr Chase           175
 2 Malik Nabers            170
 3 Justin Jefferson        162
 4 Drake London            158
 5 Garrett Wilson          153
 6 CeeDee Lamb             152
 7 Amon-Ra St. Brown       151
 8 Jerry Jeudy             145
 9 Courtland Sutton        144
10 Davante Adams           141
# ℹ 50 more rows
…
# For RBs

total_volumeRB <- Updated_RB %>% 
  group_by(player_display_name) %>% 
  summarise(
    carries = sum(carries, na.rm = TRUE),
    .groups = "drop"
  ) %>% 
  arrange(desc(carries)) %>% 
  slice_head(n=60)

total_volumeRB

# A tibble: 60 × 2
   player_display_name carries
   <chr>                 <int>
 1 Saquon Barkley          436
 2 Derrick Henry           367
 3 Kyren Williams          351
 4 Josh Jacobs             319
 5 Bijan Robinson          304
 6 Jonathan Taylor         303
 7 Joe Mixon               288
 8 Najee Harris            269
 9 Aaron Jones             268
10 Jahmyr Gibbs            264
# ℹ 50 more rows
…
[1] 53

# For Qbs
total_volumeQB <- Updated_QB %>% 
  group_by(player_display_name) %>% 
  summarise(
    targets = sum(attempts, na.rm = TRUE),
    .groups = "drop"
  ) %>% 
  arrange(desc(targets)) %>% 
  slice_head(n=60)

total_volumeQB

# A tibble: 60 × 2
   player_display_name targets
   <chr>                 <int>
 1 Patrick Mahomes         664
 2 Joe Burrow              652
 3 Jayden Daniels          594
 4 C.J. Stroud             593
 5 Bo Nix                  589
 6 Baker Mayfield          588
 7 Matthew Stafford        588
 8 Sam Darnold             585
 9 Aaron Rodgers           584
10 Jared Goff              579
# ℹ 50 more rows
…
