Making Backyards Affordable for All – About Me
…
Show code for CBSA import

top_health_vs_income<-Health_vs_Total %>% 
  ungroup()  %>% 
  slice_max(order_by = Total_Employment,n=30,with_ties = FALSE)

top_health_vs_income

# A tibble: 30 × 5
   CBSA  NAME                                   YEAR Total_Employment Health_Emp
   <chr> <chr>                                 <dbl>            <dbl>      <dbl>
 1 C3562 New York-Newark-Jersey City, NY-NJ-P…  2019         43407668    1610693
 2 C3562 New York-Newark-Jersey City, NY-NJ M…  2023         42585716    1756931
 3 C3562 New York-Newark-Jersey City, NY-NJ-P…  2022         41728290    1649152
 4 C3562 New York-Newark-Jersey City, NY-NJ-P…  2018         41122324    1539689
 5 C3562 New York-Newark-Jersey City, NY-NJ-P…  2016         40649858    1425753
 6 C3562 New York-Newark-Jersey City, NY-NJ-P…  2017         40438381    1479129
 7 C3562 New York-Newark-Jersey City, NY-NJ-P…  2015         40313635    1383736
 8 C3562 New York-Newark-Jersey City, NY-NJ-P…  2013         37708250    1314131
 9 C3562 New York-Newark-Jersey City, NY-NJ-P…  2021         37567539    1572728
10 C3562 New York-Newark-Jersey City, NY-NJ-P…  2014         36250638    1347073
# ℹ 20 more rows
…
