Visualizing and Maintaining the Green Canopy of NYC – About Me
…
print(q1)

# A tibble: 48 × 3
   CounDist tree_count zip_city     
      <int>      <int> <chr>        
 1       NA     683788 Forest Hills 
 2       NA     683788 Whitestone   
 3       NA     683788 Brooklyn     
 4       NA     683788 New York     
 5       NA     683788 Staten Island
 6       NA     683788 Astoria      
 7       NA     683788 Elmhurst     
 8       NA     683788 Kew Gardens  
 9       NA     683788 Ridgewood    
10       NA     683788 Bronx        
# ℹ 38 more rows
…
  group_by(CounDist, Shape_Area) %>%
  summarize(tree_count = n(), .groups = "drop") %>%
  mutate(tree_density = tree_count / Shape_Area) %>%
  arrange(desc(tree_density)) %>%
  slice(1) %>%
  left_join(
    trees_with_districts %>% 
      st_drop_geometry() %>% 
      select(CounDist, zip_city) %>% 
      distinct(),
    by = "CounDist"
  )
print(q2)

# A tibble: 48 × 5
   CounDist Shape_Area tree_count tree_density zip_city     
      <int>      <dbl>      <int>        <dbl> <chr>        
 1       NA         NA     683788           NA Forest Hills 
 2       NA         NA     683788           NA Whitestone   
 3       NA         NA     683788           NA Brooklyn     
 4       NA         NA     683788           NA New York     
 5       NA         NA     683788           NA Staten Island
 6       NA         NA     683788           NA Astoria      
 7       NA         NA     683788           NA Elmhurst     
 8       NA         NA     683788           NA Kew Gardens  
 9       NA         NA     683788           NA Ridgewood    
10       NA         NA     683788           NA Bronx        
# ℹ 38 more rows
…
print(q3)

# A tibble: 48 × 5
   CounDist total_trees dead_trees fraction_dead zip_city     
      <int>       <int>      <int>         <dbl> <chr>        
 1       NA      683788      13961        0.0204 Forest Hills 
 2       NA      683788      13961        0.0204 Whitestone   
 3       NA      683788      13961        0.0204 Brooklyn     
 4       NA      683788      13961        0.0204 New York     
 5       NA      683788      13961        0.0204 Staten Island
 6       NA      683788      13961        0.0204 Astoria      
 7       NA      683788      13961        0.0204 Elmhurst     
 8       NA      683788      13961        0.0204 Kew Gardens  
 9       NA      683788      13961        0.0204 Ridgewood    
10       NA      683788      13961        0.0204 Bronx        
# ℹ 38 more rows
…
